<Instance of MyButton, address18271952: 
    _ListTree__visited={}
    _name=18271952
    _tclCommands=[]
    _w=.18271952
    children={}
    master=.
    tk=<_tkinter.tkapp object at 0x010C5698>
    widgetName=button

....<Class MyButton, address 46705472: 
        __doc__=<>
        __module__=<>

........<Class ListTree, address 18298296: 
            _ListTree__attrnames=<function ListTree.__attrnames at 0x011704F8>
            _ListTree__listclass=<function ListTree.__listclass at 0x011704B0>
            __dict__=<>
            __doc__=<>
            __module__=<>
            __str__=<>
            __weakref__=<>

............<Class object, address 1789049552: 
                __class__=<>
                __delattr__=<>
                __dir__=<>
                __doc__=<>
                __eq__=<>
                __format__=<>
                __ge__=<>
                __getattribute__=<>
                __gt__=<>
                __hash__=<>
                __init__=<>
                __le__=<>
                __lt__=<>
                __ne__=<>
                __new__=<>
                __reduce__=<>
                __reduce_ex__=<>
                __repr__=<>
                __setattr__=<>
                __sizeof__=<>
                __str__=<>
                __subclasshook__=<>
............>
........>

........<Class Button, address 46661680: 
            __doc__=<>
            __init__=<>
            __module__=<>
            flash=<function Button.flash at 0x02C7F300>
            invoke=<function Button.invoke at 0x02C7F348>

............<Class Widget, address 46652224: 
                __doc__=<>
                __module__=<>

................<Class BaseWidget, address 46651752: 
                    __doc__=<>
                    __init__=<>
                    __module__=<>
                    _do=<function BaseWidget._do at 0x02C7F228>
                    _setup=<function BaseWidget._setup at 0x02C7F150>
                    destroy=<function BaseWidget.destroy at 0x02C7F1E0>

....................<Class Misc, address 46634896: 
                        _Misc__winfo_getint=<function Misc.__winfo_getint at 0x02C7AFA8>
                        _Misc__winfo_parseitem=<function Misc.__winfo_parseitem at 0x02C7AF60>
                        __dict__=<>
                        __doc__=<>
                        __getitem__=<>
                        __module__=<>
                        __repr__=<>
                        __setitem__=<>
                        __str__=<>
                        __weakref__=<>
                        _bind=<function Misc._bind at 0x02C7B300>
                        _configure=<function Misc._configure at 0x02C7B930>
                        _displayof=<function Misc._displayof at 0x02C7B660>
                        _getboolean=<function Misc._getboolean at 0x02C7B618>
                        _getconfigure=<function Misc._getconfigure at 0x02C7B8A0>
                        _getconfigure1=<function Misc._getconfigure1 at 0x02C7B8E8>
                        _getdoubles=<function Misc._getdoubles at 0x02C7B5D0>
                        _getints=<function Misc._getints at 0x02C7B588>
                        _grid_configure=<function Misc._grid_configure at 0x02C7BCD8>
                        _gridconvvalue=<function Misc._gridconvvalue at 0x02C7BC90>
                        _nametowidget=<function Misc.nametowidget at 0x02C7B738>
                        _noarg_=['_noarg_']
                        _options=<function Misc._options at 0x02C7B6F0>
                        _register=<function Misc._register at 0x02C7B780>
                        _report_exception=<function Misc._report_exception at 0x02C7B858>
                        _root=<function Misc._root at 0x02C7B7C8>
                        _subst_format=('%#', '%b', '%f', '%h', '%k', '%s', '%t', '%w', '%x', '%y', '%A', '%E', '%K', '%N', '%W', '%T', '%X', '%Y', '%D')
                        _subst_format_str=%# %b %f %h %k %s %t %w %x %y %A %E %K %N %W %T %X %Y %D
                        _substitute=<function Misc._substitute at 0x02C7B810>
                        _tclCommands=None
                        _windowingsystem=<property object at 0x02C720F0>
                        after=<function Misc.after at 0x02C77C90>
                        after_cancel=<function Misc.after_cancel at 0x02C77D20>
                        after_idle=<function Misc.after_idle at 0x02C77CD8>
                        anchor=<function Misc.grid_anchor at 0x02C7BC00>
                        bbox=<function Misc.grid_bbox at 0x02C7BC48>
                        bell=<function Misc.bell at 0x02C77D68>
                        bind=<function Misc.bind at 0x02C7B348>
                        bind_all=<function Misc.bind_all at 0x02C7B3D8>
                        bind_class=<function Misc.bind_class at 0x02C7B468>
                        bindtags=<function Misc.bindtags at 0x02C7B2B8>
                        cget=<function Misc.cget at 0x02C7B9C0>
                        clipboard_append=<function Misc.clipboard_append at 0x02C77E40>
                        clipboard_clear=<function Misc.clipboard_clear at 0x02C77DF8>
                        clipboard_get=<function Misc.clipboard_get at 0x02C77DB0>
                        columnconfigure=<function Misc.grid_columnconfigure at 0x02C7BD20>
                        config=<function Misc.configure at 0x02C7B978>
                        configure=<function Misc.configure at 0x02C7B978>
                        deletecommand=<function Misc.deletecommand at 0x02C776A8>
                        destroy=<function Misc.destroy at 0x02C77660>
                        event_add=<function Misc.event_add at 0x02C7BED0>
                        event_delete=<function Misc.event_delete at 0x02C7BF18>
                        event_generate=<function Misc.event_generate at 0x02C7BF60>
                        event_info=<function Misc.event_info at 0x02C7BFA8>
                        focus=<function Misc.focus_set at 0x02C77A50>
                        focus_displayof=<function Misc.focus_displayof at 0x02C77B28>
                        focus_force=<function Misc.focus_force at 0x02C77A98>
                        focus_get=<function Misc.focus_get at 0x02C77AE0>
                        focus_lastfor=<function Misc.focus_lastfor at 0x02C77B70>
                        focus_set=<function Misc.focus_set at 0x02C77A50>
                        getboolean=<function Misc.getboolean at 0x02C77A08>
                        getdouble=<function Misc.getdouble at 0x02C779C0>
                        getint=<function Misc.getint at 0x02C77978>
                        getvar=<function Misc.getvar at 0x02C77930>
                        grab_current=<function Misc.grab_current at 0x02C77E88>
                        grab_release=<function Misc.grab_release at 0x02C77ED0>
                        grab_set=<function Misc.grab_set at 0x02C77F18>
                        grab_set_global=<function Misc.grab_set_global at 0x02C77F60>
                        grab_status=<function Misc.grab_status at 0x02C77FA8>
                        grid_anchor=<function Misc.grid_anchor at 0x02C7BC00>
                        grid_bbox=<function Misc.grid_bbox at 0x02C7BC48>
                        grid_columnconfigure=<function Misc.grid_columnconfigure at 0x02C7BD20>
                        grid_location=<function Misc.grid_location at 0x02C7BD68>
                        grid_propagate=<function Misc.grid_propagate at 0x02C7BDB0>
                        grid_rowconfigure=<function Misc.grid_rowconfigure at 0x02C7BDF8>
                        grid_size=<function Misc.grid_size at 0x02C7BE40>
                        grid_slaves=<function Misc.grid_slaves at 0x02C7BE88>
                        image_names=<function Misc.image_names at 0x02C7C030>
                        image_types=<function Misc.image_types at 0x02C7C078>
                        keys=<function Misc.keys at 0x02C7BA50>
                        lift=<function Misc.tkraise at 0x02C7A348>
                        lower=<function Misc.lower at 0x02C7A300>
                        mainloop=<function Misc.mainloop at 0x02C7B4F8>
                        nametowidget=<function Misc.nametowidget at 0x02C7B738>
                        option_add=<function Misc.option_add at 0x02C7A030>
                        option_clear=<function Misc.option_clear at 0x02C7A078>
                        option_get=<function Misc.option_get at 0x02C7A0C0>
                        option_readfile=<function Misc.option_readfile at 0x02C7A108>
                        pack_propagate=<function Misc.pack_propagate at 0x02C7BB28>
                        pack_slaves=<function Misc.pack_slaves at 0x02C7BB70>
                        place_slaves=<function Misc.place_slaves at 0x02C7BBB8>
                        propagate=<function Misc.pack_propagate at 0x02C7BB28>
                        quit=<function Misc.quit at 0x02C7B540>
                        register=<function Misc._register at 0x02C7B780>
                        rowconfigure=<function Misc.grid_rowconfigure at 0x02C7BDF8>
                        selection_clear=<function Misc.selection_clear at 0x02C7A150>
                        selection_get=<function Misc.selection_get at 0x02C7A198>
                        selection_handle=<function Misc.selection_handle at 0x02C7A1E0>
                        selection_own=<function Misc.selection_own at 0x02C7A228>
                        selection_own_get=<function Misc.selection_own_get at 0x02C7A270>
                        send=<function Misc.send at 0x02C7A2B8>
                        setvar=<function Misc.setvar at 0x02C778E8>
                        size=<function Misc.grid_size at 0x02C7BE40>
                        slaves=<function Misc.pack_slaves at 0x02C7BB70>
                        tk_bisque=<function Misc.tk_bisque at 0x02C77738>
                        tk_focusFollowsMouse=<function Misc.tk_focusFollowsMouse at 0x02C77BB8>
                        tk_focusNext=<function Misc.tk_focusNext at 0x02C77C00>
                        tk_focusPrev=<function Misc.tk_focusPrev at 0x02C77C48>
                        tk_menuBar=<function Misc.tk_menuBar at 0x02C777C8>
                        tk_setPalette=<function Misc.tk_setPalette at 0x02C77780>
                        tk_strictMotif=<function Misc.tk_strictMotif at 0x02C776F0>
                        tkraise=<function Misc.tkraise at 0x02C7A348>
                        unbind=<function Misc.unbind at 0x02C7B390>
                        unbind_all=<function Misc.unbind_all at 0x02C7B420>
                        unbind_class=<function Misc.unbind_class at 0x02C7B4B0>
                        update=<function Misc.update at 0x02C7B228>
                        update_idletasks=<function Misc.update_idletasks at 0x02C7B270>
                        wait_variable=<function Misc.wait_variable at 0x02C77810>
                        wait_visibility=<function Misc.wait_visibility at 0x02C778A0>
                        wait_window=<function Misc.wait_window at 0x02C77858>
                        waitvar=<function Misc.wait_variable at 0x02C77810>
                        winfo_atom=<function Misc.winfo_atom at 0x02C7A390>
                        winfo_atomname=<function Misc.winfo_atomname at 0x02C7A3D8>
                        winfo_cells=<function Misc.winfo_cells at 0x02C7A420>
                        winfo_children=<function Misc.winfo_children at 0x02C7A468>
                        winfo_class=<function Misc.winfo_class at 0x02C7A4B0>
                        winfo_colormapfull=<function Misc.winfo_colormapfull at 0x02C7A4F8>
                        winfo_containing=<function Misc.winfo_containing at 0x02C7A540>
                        winfo_depth=<function Misc.winfo_depth at 0x02C7A588>
                        winfo_exists=<function Misc.winfo_exists at 0x02C7A5D0>
                        winfo_fpixels=<function Misc.winfo_fpixels at 0x02C7A618>
                        winfo_geometry=<function Misc.winfo_geometry at 0x02C7A660>
                        winfo_height=<function Misc.winfo_height at 0x02C7A6A8>
                        winfo_id=<function Misc.winfo_id at 0x02C7A6F0>
                        winfo_interps=<function Misc.winfo_interps at 0x02C7A738>
                        winfo_ismapped=<function Misc.winfo_ismapped at 0x02C7A780>
                        winfo_manager=<function Misc.winfo_manager at 0x02C7A7C8>
                        winfo_name=<function Misc.winfo_name at 0x02C7A810>
                        winfo_parent=<function Misc.winfo_parent at 0x02C7A858>
                        winfo_pathname=<function Misc.winfo_pathname at 0x02C7A8A0>
                        winfo_pixels=<function Misc.winfo_pixels at 0x02C7A8E8>
                        winfo_pointerx=<function Misc.winfo_pointerx at 0x02C7A930>
                        winfo_pointerxy=<function Misc.winfo_pointerxy at 0x02C7A978>
                        winfo_pointery=<function Misc.winfo_pointery at 0x02C7A9C0>
                        winfo_reqheight=<function Misc.winfo_reqheight at 0x02C7AA08>
                        winfo_reqwidth=<function Misc.winfo_reqwidth at 0x02C7AA50>
                        winfo_rgb=<function Misc.winfo_rgb at 0x02C7AA98>
                        winfo_rootx=<function Misc.winfo_rootx at 0x02C7AAE0>
                        winfo_rooty=<function Misc.winfo_rooty at 0x02C7AB28>
                        winfo_screen=<function Misc.winfo_screen at 0x02C7AB70>
                        winfo_screencells=<function Misc.winfo_screencells at 0x02C7ABB8>
                        winfo_screendepth=<function Misc.winfo_screendepth at 0x02C7AC00>
                        winfo_screenheight=<function Misc.winfo_screenheight at 0x02C7AC48>
                        winfo_screenmmheight=<function Misc.winfo_screenmmheight at 0x02C7AC90>
                        winfo_screenmmwidth=<function Misc.winfo_screenmmwidth at 0x02C7ACD8>
                        winfo_screenvisual=<function Misc.winfo_screenvisual at 0x02C7AD20>
                        winfo_screenwidth=<function Misc.winfo_screenwidth at 0x02C7AD68>
                        winfo_server=<function Misc.winfo_server at 0x02C7ADB0>
                        winfo_toplevel=<function Misc.winfo_toplevel at 0x02C7ADF8>
                        winfo_viewable=<function Misc.winfo_viewable at 0x02C7AE40>
                        winfo_visual=<function Misc.winfo_visual at 0x02C7AE88>
                        winfo_visualid=<function Misc.winfo_visualid at 0x02C7AED0>
                        winfo_visualsavailable=<function Misc.winfo_visualsavailable at 0x02C7AF18>
                        winfo_vrootheight=<function Misc.winfo_vrootheight at 0x02C7B030>
                        winfo_vrootwidth=<function Misc.winfo_vrootwidth at 0x02C7B078>
                        winfo_vrootx=<function Misc.winfo_vrootx at 0x02C7B0C0>
                        winfo_vrooty=<function Misc.winfo_vrooty at 0x02C7B108>
                        winfo_width=<function Misc.winfo_width at 0x02C7B150>
                        winfo_x=<function Misc.winfo_x at 0x02C7B198>
                        winfo_y=<function Misc.winfo_y at 0x02C7B1E0>

........................<Class object:, address 1789049552: (see above)>
....................>
................>

................<Class Pack, address 46650336: 
                    __dict__=<>
                    __doc__=<>
                    __module__=<>
                    __weakref__=<>
                    config=<function Pack.pack_configure at 0x02C7CE40>
                    configure=<function Pack.pack_configure at 0x02C7CE40>
                    forget=<function Pack.pack_forget at 0x02C7CE88>
                    info=<function Pack.pack_info at 0x02C7CED0>
                    pack=<function Pack.pack_configure at 0x02C7CE40>
                    pack_configure=<function Pack.pack_configure at 0x02C7CE40>
                    pack_forget=<function Pack.pack_forget at 0x02C7CE88>
                    pack_info=<function Pack.pack_info at 0x02C7CED0>
                    pack_propagate=<function Misc.pack_propagate at 0x02C7BB28>
                    pack_slaves=<function Misc.pack_slaves at 0x02C7BB70>
                    propagate=<function Misc.pack_propagate at 0x02C7BB28>
                    slaves=<function Misc.pack_slaves at 0x02C7BB70>

....................<Class object:, address 1789049552: (see above)>
................>

................<Class Place, address 46650808: 
                    __dict__=<>
                    __doc__=<>
                    __module__=<>
                    __weakref__=<>
                    config=<function Place.place_configure at 0x02C7CF18>
                    configure=<function Place.place_configure at 0x02C7CF18>
                    forget=<function Place.place_forget at 0x02C7CF60>
                    info=<function Place.place_info at 0x02C7CFA8>
                    place=<function Place.place_configure at 0x02C7CF18>
                    place_configure=<function Place.place_configure at 0x02C7CF18>
                    place_forget=<function Place.place_forget at 0x02C7CF60>
                    place_info=<function Place.place_info at 0x02C7CFA8>
                    place_slaves=<function Misc.place_slaves at 0x02C7BBB8>
                    slaves=<function Misc.place_slaves at 0x02C7BBB8>

....................<Class object:, address 1789049552: (see above)>
................>

................<Class Grid, address 46651280: 
                    __dict__=<>
                    __doc__=<>
                    __module__=<>
                    __weakref__=<>
                    bbox=<function Misc.grid_bbox at 0x02C7BC48>
                    columnconfigure=<function Misc.grid_columnconfigure at 0x02C7BD20>
                    config=<function Grid.grid_configure at 0x02C7F030>
                    configure=<function Grid.grid_configure at 0x02C7F030>
                    forget=<function Grid.grid_forget at 0x02C7F078>
                    grid=<function Grid.grid_configure at 0x02C7F030>
                    grid_bbox=<function Misc.grid_bbox at 0x02C7BC48>
                    grid_columnconfigure=<function Misc.grid_columnconfigure at 0x02C7BD20>
                    grid_configure=<function Grid.grid_configure at 0x02C7F030>
                    grid_forget=<function Grid.grid_forget at 0x02C7F078>
                    grid_info=<function Grid.grid_info at 0x02C7F108>
                    grid_location=<function Misc.grid_location at 0x02C7BD68>
                    grid_propagate=<function Misc.grid_propagate at 0x02C7BDB0>
                    grid_remove=<function Grid.grid_remove at 0x02C7F0C0>
                    grid_rowconfigure=<function Misc.grid_rowconfigure at 0x02C7BDF8>
                    grid_size=<function Misc.grid_size at 0x02C7BE40>
                    grid_slaves=<function Misc.grid_slaves at 0x02C7BE88>
                    info=<function Grid.grid_info at 0x02C7F108>
                    location=<function Misc.grid_location at 0x02C7BD68>
                    propagate=<function Misc.grid_propagate at 0x02C7BDB0>
                    rowconfigure=<function Misc.grid_rowconfigure at 0x02C7BDF8>
                    size=<function Misc.grid_size at 0x02C7BE40>
                    slaves=<function Misc.grid_slaves at 0x02C7BE88>

....................<Class object:, address 1789049552: (see above)>
................>
............>
........>
....>
>